<svg xmlns="http://www.w3.org/2000/svg" width="162" height="162">
    <path fill="#FFF" fill-rule="evenodd" d="M81 162c-44.664 0-81-36.337-81-81C0 36.336 36.336 0 81 0s81 36.336 81 81c0 44.663-36.336 81-81 81zm0-148.722c-37.342 0-67.721 30.38-67.721 67.722 0 37.341 30.379 67.721 67.721 67.721s67.721-30.38 67.721-67.721c0-37.342-30.379-67.722-67.721-67.722zm-8.358 98.811a6.618 6.618 0 0 1-4.694 1.944c-1.7 0-3.399-.648-4.695-1.944L36.57 85.405a6.638 6.638 0 1 1 9.389-9.389l21.989 21.989 48.093-48.094a6.638 6.638 0 1 1 9.389 9.389l-52.788 52.789z"/>
</svg>
