<svg xmlns="http://www.w3.org/2000/svg" width="40" height="40">
    <path fill="#FFF" fill-rule="evenodd" d="M19.999 39.994C8.974 39.994.004 31.023.004 19.999.004 8.974 8.974.004 19.999.004s19.995 8.97 19.995 19.995c0 11.024-8.97 19.995-19.995 19.995zM31.37 17.665v-4.642a4.4 4.4 0 0 0-4.396-4.395H13.023a4.4 4.4 0 0 0-4.395 4.395v13.953a4.4 4.4 0 0 0 4.395 4.396h13.952a4.4 4.4 0 0 0 4.395-4.396v-9.311zm-4.397 11.488H13.022a2.178 2.178 0 0 1-2.179-2.177v-9.311h3.394a6.184 6.184 0 0 0-.458 2.334 6.227 6.227 0 0 0 6.22 6.219 6.226 6.226 0 0 0 6.219-6.219c0-.825-.167-1.614-.461-2.334h3.396v9.311a2.179 2.179 0 0 1-2.18 2.177zm-2.09-17.894l3.353-.01.503-.001v3.854l-3.842.013-.014-3.856zm-4.885 12.742a4.007 4.007 0 0 1-4.003-4.003 3.987 3.987 0 0 1 .757-2.333 4 4 0 0 1 3.247-1.669c1.335 0 2.517.661 3.246 1.669.472.658.757 1.463.757 2.334a4.009 4.009 0 0 1-4.004 4.002z"/>
</svg>
