<svg xmlns="http://www.w3.org/2000/svg" width="64" height="52">
    <path fill="#F9CD3D" fill-rule="evenodd" d="M62.852 52H35.874a1.128 1.128 0 0 1-1.148-1.135V1.135c0-.639.503-1.135 1.148-1.135h26.978c.573 0 1.076.496 1.147 1.064v49.801c0 .638-.502 1.135-1.147 1.135zM61.775 2.199H37.022v4.398h24.753V2.199zm0 6.597H37.022v33.059h24.753V8.796zm0 35.258H37.022v5.675h24.753v-5.675zM49.363 49.02c-1.292 0-2.368-1.064-2.368-2.341 0-1.277 1.076-2.341 2.368-2.341 1.291 0 2.368 1.064 2.368 2.341 0 1.277-1.077 2.341-2.368 2.341zm9.112-32.278h-14.78l2.726 2.128c.502.355.574 1.064.216 1.561a1.031 1.031 0 0 1-.862.426c-.287 0-.502-.071-.717-.214l-5.31-4.114c-.071 0-.071-.071-.071-.071a43.381 43.381 0 0 1-.215-.213c0-.071-.072-.071-.072-.142 0 0-.072 0-.072-.07v-.284-.143-.354c0-.142.072-.213.144-.355 0-.071.071-.071.071-.071l.144-.141 5.309-4.115c.502-.355 1.22-.284 1.579.212.358.497.287 1.207-.216 1.561l-2.726 2.129h14.852c.646 0 1.148.497 1.148 1.134 0 .639-.502 1.136-1.148 1.136zM46.637 33.768c.215 0 .574 0 .86.355.646.709 1.507 1.064 2.583 1.135h.359c.574 0 1.076-.142 1.435-.355s.503-.497.503-.993c0-.355-.144-.639-.503-.851-.359-.284-.861-.497-1.435-.71-.574-.213-1.219-.426-1.865-.71a4.935 4.935 0 0 1-1.722-1.276c-.503-.568-.718-1.348-.718-2.2 0-1.135.359-2.057 1.148-2.625.503-.425 1.148-.638 1.866-.78v-1.489c0-.639.502-1.135 1.148-1.135.645 0 1.148.496 1.148 1.135v1.489c1.147.213 2.08.78 2.726 1.703.144.213.215.425.215.709s-.071.568-.287.781a1.023 1.023 0 0 1-1.578 0c-.646-.639-1.363-.923-2.296-.923-1.722 0-1.722.781-1.722 1.135 0 .355.143.639.574.923.359.284.861.496 1.435.709.646.213 1.22.426 1.866.709.645.284 1.219.71 1.578 1.207.43.567.717 1.276.717 2.128 0 1.205-.43 2.199-1.291 2.837-.502.426-1.22.71-2.009.852v1.489c0 .639-.502 1.135-1.148 1.135a1.126 1.126 0 0 1-1.148-1.135v-1.489c-.502-.072-1.076-.284-1.507-.497-.789-.426-1.435-.922-1.794-1.419a1.36 1.36 0 0 1-.215-.709c0-.284.072-.568.287-.78.216-.213.502-.355.79-.355zM28.125 52H1.148A1.127 1.127 0 0 1 0 50.865V1.135C0 .496.502 0 1.148 0h26.977c.646 0 1.148.496 1.148 1.064v49.801c0 .638-.502 1.135-1.148 1.135zM26.977 2.199H2.296v4.398h24.681V2.199zm0 6.597H2.296v33.059h24.681V8.796zm0 35.258H2.296v5.675h24.681v-5.675zm-12.34.284c1.291 0 2.367 1.064 2.367 2.341 0 1.277-1.076 2.341-2.367 2.341-1.292 0-2.368-1.064-2.368-2.341 0-1.277 1.076-2.341 2.368-2.341zM5.668 33.98h14.709l-2.727-2.128c-.502-.354-.574-1.064-.215-1.561.359-.496 1.076-.567 1.578-.212l5.31 4.115c.072 0 .072.07.072.07l.215.213c0 .071.071.071.071.142 0 0 .072 0 .072.071V35.328c0 .143-.072.213-.143.355 0 .071-.072.071-.072.071l-.143.142-5.31 4.115a1.401 1.401 0 0 1-.717.212c-.288 0-.646-.141-.862-.425-.358-.497-.286-1.206.216-1.561l2.726-2.128H5.668c-.646 0-1.148-.497-1.148-.993 0-.639.502-1.136 1.148-1.136zm11.408-6.384v1.135c0 .639-.502 1.135-1.148 1.135a1.126 1.126 0 0 1-1.148-1.135v-1.064h-1.435v1.064c0 .639-.502 1.135-1.148 1.135a1.127 1.127 0 0 1-1.148-1.135v-1.064H9.542a1.127 1.127 0 0 1-1.147-1.136c0-.637.502-1.134 1.147-1.134v.213h1.507v-4.115c-.574 0-1.076-.497-1.076-1.064 0-.568.502-1.065 1.076-1.065v-4.114H9.542a1.127 1.127 0 0 1-1.147-1.135c0-.639.502-1.135 1.147-1.135h1.507v-1.135c0-.638.503-1.135 1.148-1.135.646 0 1.148.497 1.148 1.135v1.135h1.435v-1.135c0-.638.502-1.135 1.148-1.135.646 0 1.148.497 1.148 1.135v1.135c2.153.212 3.874 1.987 3.874 4.185 0 1.206-.573 2.342-1.435 3.122.862.78 1.435 1.845 1.435 3.121 0 2.2-1.721 3.973-3.874 4.186zm-.574-12.557h-3.229v4.115h3.229c1.148 0 2.081-.923 2.081-2.057 0-1.136-.933-2.058-2.081-2.058zm0 6.314h-3.229v4.114h3.229c1.148 0 2.081-.921 2.081-2.057 0-1.135-.933-2.057-2.081-2.057z"/>
</svg>
