<svg xmlns="http://www.w3.org/2000/svg" width="134" height="134">
    <path fill="#FFF" fill-rule="evenodd" d="M121.359 76.228c2.291-2.405 3.707-5.651 3.707-9.228 0-6.381-4.486-11.725-10.467-13.068l9.929-31.771c5.349-.824 9.472-5.418 9.472-10.995C134 5.009 128.991 0 122.833 0c-4.652 0-8.643 2.865-10.318 6.92l-33.004 6.189C77.586 8.064 72.713 4.466 67 4.466c-5.751 0-10.651 3.647-12.55 8.744L22.132 9.17C21.185 3.966 16.64 0 11.166 0 5.009 0 0 5.009 0 11.166c0 5.392 3.843 9.903 8.933 10.941v27.252C3.843 50.397 0 54.908 0 60.3c0 5.704 4.317 10.371 9.847 11.032l8.79 14.063c-5.595 1.611-9.704 6.765-9.704 12.871 0 3.578 1.416 6.823 3.707 9.228C5.449 108.895 0 115.238 0 122.833v8.933C0 132.999.998 134 2.233 134h40.2a2.233 2.233 0 0 0 2.233-2.234v-6.7h56.06c1.038 5.09 5.547 8.934 10.94 8.934 6.157 0 11.167-5.01 11.167-11.167 0-5.392-3.843-9.903-8.933-10.941v-9.159h17.867a2.233 2.233 0 0 0 2.233-2.234v-8.932c0-7.596-5.449-13.939-12.641-15.339zM120.6 67c0 4.927-4.007 8.933-8.934 8.933-4.926 0-8.933-4.006-8.933-8.933s4.007-8.934 8.933-8.934c4.927 0 8.934 4.007 8.934 8.934zm2.233-62.534c3.694 0 6.7 3.006 6.7 6.7 0 3.694-3.006 6.7-6.7 6.7a6.708 6.708 0 0 1-6.7-6.7c0-3.694 3.006-6.7 6.7-6.7zM80.4 17.866c0-.127-.016-.25-.021-.375l31.332-5.876c.201 4.945 3.616 9.038 8.219 10.287l-9.943 31.814c-4.12.518-7.656 2.91-9.735 6.298L89.297 41.756c-.315-7.292-5.63-13.304-12.607-14.664a13.32 13.32 0 0 0 3.71-9.226zM67.294 65.083L68.938 53.6H87.1a2.233 2.233 0 0 0 2.233-2.234v-.871l9.018 15.031c-.053.485-.085.976-.085 1.474 0 3.577 1.417 6.823 3.708 9.228-5.755 1.121-10.385 5.409-12.009 10.972L75.819 74.823c-.482-4.779-3.942-8.67-8.525-9.74zm4.172 10.85c0 3.694-3.006 6.7-6.699 6.7a6.708 6.708 0 0 1-6.701-6.7c0-3.694 3.006-6.7 6.701-6.7a6.708 6.708 0 0 1 6.699 6.7zM67 8.933c4.926 0 8.933 4.006 8.933 8.933S71.926 26.799 67 26.799c-4.927 0-8.934-4.006-8.934-8.933S62.073 8.933 67 8.933zm-6.7 22.334h13.4c6.157 0 11.167 5.009 11.167 11.166v6.7H49.133v-6.7c0-6.157 5.009-11.166 11.167-11.166zM22.029 13.659l31.584 3.948c-.002.087-.013.172-.013.259 0 3.578 1.416 6.823 3.707 9.228-6.796 1.325-12.024 7.065-12.578 14.102L21.65 56.583c-1.298-3.644-4.396-6.438-8.25-7.224V22.107c4.279-.873 7.656-4.207 8.629-8.448zM4.466 11.166c0-3.694 3.006-6.7 6.7-6.7 3.694 0 6.701 3.006 6.701 6.7 0 3.694-3.007 6.7-6.701 6.7a6.708 6.708 0 0 1-6.7-6.7zm0 49.134c0-3.694 3.006-6.7 6.7-6.7 3.694 0 6.701 3.006 6.701 6.7 0 3.693-3.007 6.7-6.701 6.7a6.709 6.709 0 0 1-6.7-6.7zm10.321 10.512a11.12 11.12 0 0 0 7.416-9.231l22.463-14.976v4.761c0 1.233.999 2.234 2.234 2.234h17.525l-1.624 11.365c-4.862.871-8.596 4.893-9.09 9.873L34.313 92.297c-2.019-4.036-6.006-6.919-10.703-7.366l-8.823-14.119zm7.546 18.521c4.927 0 8.933 4.006 8.933 8.933s-4.006 8.934-8.933 8.934-8.933-4.007-8.933-8.934 4.006-8.933 8.933-8.933zm17.867 40.2H4.466v-6.7c0-6.157 5.01-11.167 11.167-11.167h13.4c6.158 0 11.167 5.01 11.167 11.167v6.7zm3.988-10.465c-1.456-5.854-6.202-10.412-12.164-11.574 2.293-2.405 3.709-5.65 3.709-9.228 0-.399-.024-.793-.06-1.186l18.775-16.899c1.678 4.056 5.666 6.918 10.319 6.918 4.671 0 8.671-2.892 10.333-6.974l12.752 11.158-43.664 27.785zm56.538 1.532H50.102l39.231-24.964v4.863c0 1.233.998 2.234 2.233 2.234h17.867v9.159a11.199 11.199 0 0 0-8.707 8.708zm17.64 2.233c0 3.694-3.006 6.7-6.7 6.7a6.707 6.707 0 0 1-6.699-6.7c0-3.694 3.005-6.7 6.699-6.7s6.7 3.006 6.7 6.7zm11.167-24.567H93.8v-6.699c0-6.158 5.009-11.167 11.167-11.167h13.399c6.158 0 11.167 5.009 11.167 11.167v6.699z" opacity=".051"/>
</svg>
