<svg xmlns="http://www.w3.org/2000/svg" width="152" height="121">
    <path fill="#F7F6F6" fill-rule="evenodd" d="M134.267 85.708v17.645h-17.734v17.646H0V35.291h17.733V17.645h17.734V-.001H152v85.709h-17.733zM17.733 40.333H5.066v75.624h106.4v-12.604H17.733v-63.02zm17.734 32.77V22.687H22.8v75.625h106.4V85.708H35.467V73.103zM146.933 5.041h-106.4v75.625H146.933V5.041zm-114 85.708a2.526 2.526 0 0 1-2.533-2.52 2.527 2.527 0 0 1 2.533-2.521 2.527 2.527 0 0 1 2.534 2.521 2.527 2.527 0 0 1-2.534 2.52zm0-15.125a2.527 2.527 0 0 1-2.533-2.521 2.526 2.526 0 0 1 2.533-2.52 2.527 2.527 0 0 1 2.534 2.52 2.528 2.528 0 0 1-2.534 2.521zm0-15.124a2.527 2.527 0 0 1-2.533-2.521 2.527 2.527 0 0 1 2.533-2.521 2.527 2.527 0 0 1 2.534 2.521 2.528 2.528 0 0 1-2.534 2.521zm0-15.126a2.527 2.527 0 0 1-2.533-2.521 2.526 2.526 0 0 1 2.533-2.52 2.527 2.527 0 0 1 2.534 2.52 2.527 2.527 0 0 1-2.534 2.521zm0-15.125a2.526 2.526 0 0 1-2.533-2.52 2.527 2.527 0 0 1 2.533-2.522 2.528 2.528 0 0 1 2.534 2.522 2.527 2.527 0 0 1-2.534 2.52zm-7.6 2.521a2.527 2.527 0 0 1 2.533 2.521 2.527 2.527 0 0 1-2.533 2.521 2.527 2.527 0 0 1-2.533-2.521 2.527 2.527 0 0 1 2.533-2.521zm0 15.125a2.527 2.527 0 0 1 2.533 2.521 2.527 2.527 0 0 1-2.533 2.521 2.527 2.527 0 0 1-2.533-2.521 2.527 2.527 0 0 1 2.533-2.521zm0 15.125a2.527 2.527 0 0 1 2.533 2.521 2.527 2.527 0 0 1-2.533 2.521 2.527 2.527 0 0 1-2.533-2.521 2.527 2.527 0 0 1 2.533-2.521zm0 15.125a2.527 2.527 0 0 1 2.533 2.521 2.527 2.527 0 0 1-2.533 2.521 2.527 2.527 0 0 1-2.533-2.521 2.527 2.527 0 0 1 2.533-2.521zm0 15.126a2.526 2.526 0 0 1 2.533 2.52 2.527 2.527 0 0 1-2.533 2.521 2.527 2.527 0 0 1-2.533-2.521 2.526 2.526 0 0 1 2.533-2.52zM38 95.791a2.526 2.526 0 0 1 2.533-2.52 2.526 2.526 0 0 1 2.533 2.52 2.527 2.527 0 0 1-2.533 2.521A2.527 2.527 0 0 1 38 95.791zm15.2 0a2.526 2.526 0 0 1 2.533-2.52 2.526 2.526 0 0 1 2.533 2.52 2.527 2.527 0 0 1-2.533 2.521 2.527 2.527 0 0 1-2.533-2.521zm15.2 0a2.526 2.526 0 0 1 2.533-2.52 2.526 2.526 0 0 1 2.533 2.52 2.527 2.527 0 0 1-2.533 2.521 2.527 2.527 0 0 1-2.533-2.521zm15.2 0a2.526 2.526 0 0 1 2.533-2.52 2.526 2.526 0 0 1 2.533 2.52 2.527 2.527 0 0 1-2.533 2.521 2.527 2.527 0 0 1-2.533-2.521zm15.2 0a2.526 2.526 0 0 1 2.533-2.52 2.527 2.527 0 0 1 2.534 2.52 2.528 2.528 0 0 1-2.534 2.521 2.527 2.527 0 0 1-2.533-2.521zm15.2 0a2.526 2.526 0 0 1 2.533-2.52 2.527 2.527 0 0 1 2.534 2.52 2.528 2.528 0 0 1-2.534 2.521A2.527 2.527 0 0 1 114 95.791zm12.666-7.562a2.526 2.526 0 0 1-2.533 2.52 2.526 2.526 0 0 1-2.533-2.52 2.527 2.527 0 0 1 2.533-2.521 2.527 2.527 0 0 1 2.533 2.521zm-15.2 0a2.526 2.526 0 0 1-2.533 2.52 2.526 2.526 0 0 1-2.533-2.52 2.527 2.527 0 0 1 2.533-2.521 2.527 2.527 0 0 1 2.533 2.521zm-15.2 0a2.526 2.526 0 0 1-2.533 2.52 2.526 2.526 0 0 1-2.533-2.52 2.527 2.527 0 0 1 2.533-2.521 2.527 2.527 0 0 1 2.533 2.521zm-15.2 0a2.526 2.526 0 0 1-2.533 2.52A2.526 2.526 0 0 1 76 88.229a2.527 2.527 0 0 1 2.533-2.521 2.527 2.527 0 0 1 2.533 2.521zm-15.199 0a2.527 2.527 0 0 1-2.534 2.52 2.526 2.526 0 0 1-2.533-2.52 2.527 2.527 0 0 1 2.533-2.521 2.527 2.527 0 0 1 2.534 2.521zm-15.2 0a2.527 2.527 0 0 1-2.534 2.52 2.526 2.526 0 0 1-2.533-2.52 2.527 2.527 0 0 1 2.533-2.521 2.527 2.527 0 0 1 2.534 2.521z" opacity=".051"/>
</svg>
