<svg xmlns="http://www.w3.org/2000/svg" width="58" height="52">
    <path fill="#F9CD3D" fill-rule="evenodd" d="M0 52V-.001h20.797l.288.41.001.001 4.554 6.457H58V52H0zM56.066 8.83h-29.04l3.46 4.905h25.58V8.83zm0 6.868H29.967v-.031a.966.966 0 0 1-.787-.41L24.647 8.83h-.012l-4.833-6.868H1.933v48.076h54.133v-34.34zM23.2 25.509c0-3.247 2.601-5.886 5.8-5.886 3.198 0 5.8 2.639 5.8 5.886v3.925h3.866v15.698H19.333V29.434H23.2v-3.925zm9.666 0c0-2.164-1.734-3.924-3.866-3.924-2.133 0-3.867 1.76-3.867 3.924v3.925h7.733v-3.925zm-11.6 5.887V43.17h15.467V31.396H21.266zm7.734.981c2.132 0 3.866 1.76 3.866 3.925a3.909 3.909 0 0 1-2.899 3.785v1.12a.973.973 0 0 1-.967.981.973.973 0 0 1-.967-.981v-1.12a3.91 3.91 0 0 1-2.9-3.785c0-2.165 1.734-3.925 3.867-3.925zm0 5.887c1.066 0 1.933-.88 1.933-1.962 0-1.083-.867-1.963-1.933-1.963s-1.934.88-1.934 1.963c0 1.082.868 1.962 1.934 1.962z"/>
</svg>
