<svg xmlns="http://www.w3.org/2000/svg" width="129" height="134">
    <path fill="#E8E8E8" fill-rule="evenodd" d="M118.42 72.602c-10.387 25.328-27.836 45.786-51.86 60.807a3.884 3.884 0 0 1-4.12 0c-24.024-15.021-41.472-35.48-51.86-60.807C1.908 51.458.041 31.364.002 18.23a3.913 3.913 0 0 1 1.14-2.771 3.887 3.887 0 0 1 2.753-1.143h.039a10.24 10.24 0 0 0 7.288-3.026 10.372 10.372 0 0 0 3.053-7.386c0-1.035.41-2.028 1.14-2.76A3.884 3.884 0 0 1 18.168 0h92.664c1.033 0 2.023.411 2.753 1.144a3.911 3.911 0 0 1 1.14 2.761 10.37 10.37 0 0 0 3.053 7.385 10.236 10.236 0 0 0 7.288 3.026h.039c1.033 0 2.023.412 2.753 1.144a3.91 3.91 0 0 1 1.14 2.77c-.039 13.134-1.906 33.228-10.578 54.372zm-6.14-55.786a18.115 18.115 0 0 1-4.927-9.011H21.646a18.12 18.12 0 0 1-4.926 9.011A17.985 17.985 0 0 1 7.84 21.7c.74 27.135 9.64 73.228 56.66 103.773 47.02-30.545 55.92-76.638 56.659-103.773a17.974 17.974 0 0 1-8.879-4.884zM74.023 78.192l-3.805-6.307H58.783l-3.806 6.307a3.89 3.89 0 0 1-3.33 1.883H36.535a3.889 3.889 0 0 1-3.41-2.021l-4.493-8.19a3.908 3.908 0 0 1 1.534-5.301 3.886 3.886 0 0 1 5.286 1.539l3.384 6.168h10.616l3.805-6.308a3.894 3.894 0 0 1 3.331-1.883h15.825c1.362 0 2.625.715 3.33 1.883l3.806 6.308h10.614l3.385-6.168a3.886 3.886 0 0 1 5.286-1.539 3.91 3.91 0 0 1 1.535 5.301l-4.493 8.19a3.89 3.89 0 0 1-3.411 2.021H77.354a3.892 3.892 0 0 1-3.331-1.883zm20.702-42.369a2.599 2.599 0 0 1 2.595 2.602 2.599 2.599 0 0 1-2.595 2.602H84.436a2.599 2.599 0 0 1-2.595-2.602 2.599 2.599 0 0 1 2.595-2.602h10.289zm-5.463-5.897c-5.57 0-10.765 3.008-13.56 7.849a3.892 3.892 0 0 1-3.373 1.949 3.856 3.856 0 0 1-1.946-.526 3.908 3.908 0 0 1-1.42-5.332c4.182-7.245 11.961-11.745 20.299-11.745 8.337 0 16.115 4.498 20.296 11.739a3.909 3.909 0 0 1-1.418 5.333 3.887 3.887 0 0 1-5.319-1.422c-2.794-4.839-7.99-7.845-13.559-7.845zm-44.059 5.897a2.599 2.599 0 0 1 2.595 2.602 2.599 2.599 0 0 1-2.595 2.602H34.914a2.599 2.599 0 0 1-2.595-2.602 2.599 2.599 0 0 1 2.595-2.602h10.289zm13.415 3.371a3.888 3.888 0 0 1-5.319-1.422c-2.794-4.839-7.99-7.845-13.559-7.845-5.571 0-10.767 3.007-13.561 7.849a3.887 3.887 0 0 1-5.318 1.424 3.91 3.91 0 0 1-1.42-5.334c4.181-7.244 11.96-11.744 20.299-11.744 8.337 0 16.114 4.498 20.296 11.739a3.909 3.909 0 0 1-1.418 5.333zm1.888 42.551a2.6 2.6 0 0 1-2.595-2.602 2.599 2.599 0 0 1 2.595-2.602h7.988a2.599 2.599 0 0 1 2.595 2.602 2.6 2.6 0 0 1-2.595 2.602h-7.988zm3.994 30.852l-7.556-26.209h15.112L64.5 112.597z" opacity=".102"/>
</svg>
