<svg xmlns="http://www.w3.org/2000/svg" width="47" height="47">
    <defs>
        <linearGradient id="a" x1="0%" x2="0%" y1="100%" y2="0%">
            <stop offset="0%" stop-color="#B63333"/>
            <stop offset="100%" stop-color="#D44539"/>
        </linearGradient>
    </defs>
    <path fill="url(#a)" fill-rule="evenodd" d="M23.499 46.999c-12.981 0-23.503-10.521-23.503-23.501 0-12.981 10.522-23.504 23.503-23.504 12.98 0 23.502 10.523 23.502 23.504 0 12.98-10.522 23.501-23.502 23.501zm10.819-35.737L6.143 22.132c-.695.267-.69 1.252.008 1.513l6.865 2.563 2.657 8.545c.17.548.84.75 1.284.387l3.826-3.12a1.141 1.141 0 0 1 1.392-.039l6.903 5.012a.809.809 0 0 0 1.267-.49l5.056-24.321a.809.809 0 0 0-1.083-.92zM17.871 27.244c-.389.361-.64.846-.711 1.372l-.377 2.795c-.05.374-.574.412-.678.05l-1.45-5.099a1.35 1.35 0 0 1 .591-1.519l13.417-8.263c.241-.147.489.178.282.37L17.871 27.244z"/>
</svg>
