<svg xmlns="http://www.w3.org/2000/svg" width="8" height="14">
    <path fill="#FFF" fill-rule="evenodd" d="M7.713 7.69l-6.022 6.02a.98.98 0 0 1-1.387-1.386l5.328-5.327L.304 1.671A.98.98 0 1 1 1.691.285l6.022 6.019a.978.978 0 0 1 0 1.386z"/>
</svg>
