<svg xmlns="http://www.w3.org/2000/svg" width="20" height="20">
    <path fill-rule="evenodd" d="M18.901 1.099a3.61 3.61 0 0 0-2.65-1.1H3.749c-1.033 0-1.916.366-2.65 1.1a3.613 3.613 0 0 0-1.1 2.65v12.502c0 1.033.367 1.916 1.1 2.65.734.734 1.617 1.1 2.65 1.1h12.502a3.61 3.61 0 0 0 2.65-1.1c.733-.734 1.1-1.617 1.1-2.65V3.749a3.613 3.613 0 0 0-1.1-2.65zM6.093 16.746H3.085V7.708h3.008v9.038zM5.82 6.035c-.313.299-.725.449-1.237.449H4.57c-.495 0-.897-.15-1.205-.449a1.492 1.492 0 0 1-.462-1.114c0-.451.158-.825.475-1.12.317-.295.727-.443 1.231-.443.503 0 .907.148 1.211.443.304.295.46.669.469 1.12 0 .443-.157.814-.469 1.114zm11.095 10.711h-3.008v-4.832c0-1.362-.504-2.044-1.511-2.044-.382 0-.703.106-.963.319a1.997 1.997 0 0 0-.586.775c-.061.156-.091.399-.091.729v5.053H7.747c.026-5.453.026-8.465 0-9.038h3.009v1.276c.632-.989 1.53-1.485 2.695-1.485 1.042 0 1.88.343 2.514 1.029.633.686.95 1.697.95 3.034v5.184z"/>
</svg>
