<svg xmlns="http://www.w3.org/2000/svg" width="232" height="126">
    <defs>
        <filter id="a" width="232" height="126" x="0" y="0" filterUnits="userSpaceOnUse">
            <feOffset dy="4" in="SourceAlpha"/>
            <feGaussianBlur result="blurOut" stdDeviation="2.449"/>
            <feFlood flood-color="#000" result="floodOut"/>
            <feComposite in="floodOut" in2="blurOut" operator="atop"/>
            <feComponentTransfer>
                <feFuncA slope=".19" type="linear"/>
            </feComponentTransfer>
            <feMerge>
                <feMergeNode/>
                <feMergeNode in="SourceGraphic"/>
            </feMerge>
        </filter>
    </defs>
    <path fill="#F7F6F6" fill-rule="evenodd" d="M221.37 75.46c-2.64 6.48-6.54 10.881-11.7 13.2-5.16 2.321-12.101 3.48-20.82 3.48-8.721 0-15.681-1.159-20.88-3.48-5.201-2.319-9.12-6.72-11.76-13.2-2.64-6.48-3.96-15.919-3.96-28.32 0-12.399 1.339-21.859 4.02-28.38 2.679-6.519 6.619-10.98 11.82-13.38 5.199-2.4 12.12-3.6 20.76-3.6 8.719 0 15.66 1.2 20.82 3.6 5.16 2.4 9.06 6.861 11.7 13.38 2.64 6.521 3.96 15.981 3.96 28.38 0 12.401-1.32 21.84-3.96 28.32zm-15.48-47.22c-1.121-4.119-2.981-6.9-5.58-8.34-2.601-1.44-6.42-2.16-11.46-2.16-4.961 0-8.741.72-11.34 2.16-2.601 1.44-4.5 4.241-5.7 8.4-1.2 4.161-1.8 10.44-1.8 18.84 0 8.241.559 14.4 1.68 18.48 1.119 4.08 2.979 6.861 5.58 8.34 2.599 1.481 6.459 2.22 11.58 2.22 5.04 0 8.859-.739 11.46-2.22 2.599-1.479 4.459-4.279 5.58-8.4 1.119-4.119 1.68-10.26 1.68-18.42 0-8.479-.561-14.779-1.68-18.9zm-86.4 44.58H89.25l-5.52 18.6H65.49l27.84-88.8h22.44l27.84 88.8h-18.48l-5.64-18.6zm-15.12-54.96l-10.92 39h21.84l-10.92-39zm-79.32 3.18c-1.281 1.32-1.92 3.021-1.92 5.1v15.24l35.16.96v14.04l-35.16.96v34.08H5.37V22.9c0-7.2 1.98-12.379 5.94-15.54 3.96-3.159 8.739-4.74 14.34-4.74 15.918 0 28.719.521 38.4 1.56v14.88H30.57c-2.4 0-4.242.66-5.52 1.98zm175.86 79.68c1.959 1.08 4.219 1.62 6.78 1.62 1.44 0 2.919-.18 4.44-.54a110.12 110.12 0 0 1 2.88-.66v13.08c-.401.079-1.301.24-2.7.48-1.401.24-2.661.36-3.78.36-4.001 0-7.74-.701-11.22-2.1-3.48-1.401-6.36-3.561-8.64-6.48-2.28-2.921-3.501-6.461-3.66-10.62h12.24c.48 2.16 1.699 3.78 3.66 4.86z" filter="url(#a)"/>
</svg>
