<svg xmlns="http://www.w3.org/2000/svg" width="621" height="92">
    <path fill="#FEFEFE" fill-rule="evenodd" d="M596.164 63.297c-2.561 0-5.879-.219-9.959-.66-4.081-.438-7.56-.858-10.44-1.259v29.039h-17.76V1.618h37.44c7.439 0 13.559 2.08 18.36 6.24 4.799 4.159 7.2 12.24 7.2 24.239 0 20.802-8.281 31.2-24.841 31.2zm-2.399-45.719h-18v29.76h17.64c3.198 0 5.619-1.201 7.259-3.601 1.639-2.4 2.46-6.239 2.46-11.519 0-9.76-3.119-14.64-9.359-14.64zm-72 54.24h-30.24l-5.52 18.599h-18.24l27.839-88.799h22.441l27.84 88.799h-18.48l-5.64-18.599zm-15.12-54.96l-10.92 39h21.84l-10.92-39zm-72.6 15.479l-15.479 58.08h-16.681l-15.48-57.359-6.6 57.359h-17.159l10.319-88.799h17.04l20.4 68.04 20.281-68.04h16.919l10.44 88.799h-17.159l-6.841-58.08zm-148.798 58.08h-37.56V1.618h37.56c11.359 0 19.359 3.839 24 11.52 4.639 7.679 6.96 18.641 6.96 32.879 0 14.961-2.561 26.101-7.68 33.421-5.121 7.319-12.882 10.979-23.28 10.979zm11.58-61.859c-1.081-4.119-2.7-6.979-4.86-8.581-2.161-1.598-5.001-2.399-8.521-2.399h-17.999v56.879h17.999c5.359 0 9.2-2.339 11.521-7.019 2.319-4.681 3.48-11.821 3.48-21.421 0-7.518-.54-13.338-1.62-17.459zm-85.38 43.26h-30.24l-5.52 18.599h-18.24l27.84-88.799h22.44l27.84 88.799h-18.48l-5.64-18.599zm-15.12-54.96l-10.92 39h21.84l-10.92-39zm-63.179 70.799c-5.16 2.322-12.101 3.48-20.82 3.48-8.721 0-15.681-1.158-20.88-3.48-5.202-2.318-9.121-6.719-11.761-13.2-2.639-6.479-3.959-15.918-3.959-28.32 0-12.399 1.339-21.859 4.02-28.38 2.679-6.52 6.618-10.979 11.82-13.38 5.199-2.399 12.119-3.6 20.76-3.6 8.719 0 15.66 1.201 20.82 3.6 5.16 2.401 9.06 6.86 11.7 13.38 2.64 6.521 3.96 15.981 3.96 28.38 0 12.402-1.32 21.841-3.96 28.32-2.64 6.481-6.54 10.882-11.7 13.2zm-3.781-60.42c-1.121-4.119-2.981-6.9-5.579-8.339-2.601-1.441-6.42-2.16-11.46-2.16-4.961 0-8.742.719-11.34 2.16-2.601 1.439-4.5 4.24-5.7 8.4-1.2 4.16-1.801 10.439-1.801 18.839 0 8.241.559 14.4 1.68 18.481 1.119 4.079 2.98 6.861 5.58 8.339 2.599 1.481 6.46 2.221 11.581 2.221 5.04 0 8.859-.74 11.46-2.221 2.598-1.478 4.458-4.278 5.579-8.399 1.12-4.12 1.68-10.261 1.68-18.421 0-8.477-.56-14.778-1.68-18.9zm-82.559 63.18l-14.28-32.88c-3.84 0-8.64-.079-14.4-.239v33.119H.368V1.618h36.72c7.839 0 14.019 2.099 18.539 6.3 4.52 4.199 6.78 11.579 6.78 22.139 0 7.441-1.259 12.96-3.779 16.561-2.52 3.6-5.941 6.32-10.26 8.159l16.56 35.64h-18.12zm-4.921-70.14c-1.841-1.799-4.481-2.699-7.919-2.699h-15.84v25.68h15.84c3.438 0 6.078-.979 7.919-2.94 1.84-1.959 2.761-5.38 2.761-10.261 0-4.718-.921-7.979-2.761-9.78z" opacity=".102"/>
</svg>
